<?xml version="1.0" encoding="UTF-8"?>
<svg width="43px" height="43px" viewBox="0 0 43 43" version="1.1" xmlns="http://www.w3.org/2000/svg" xmlns:xlink="http://www.w3.org/1999/xlink">
    <g id="Symbols" stroke="none" stroke-width="1" fill="none" fill-rule="evenodd">
        <g id="Site-Elements/Footer" transform="translate(-1042.000000, -88.000000)">
            <g id="Group-6" transform="translate(1042.000000, 88.000000)">
                <circle id="Icon-Background" fill="#FFFFFF" cx="21.5" cy="21.5" r="21.5"></circle>
                <g id="Group-5" transform="translate(9.500000, 9.000000)" fill="#002250">
                    <path d="M12.1568627,18.8454717 C15.6431415,18.8454717 18.5964912,15.8417451 18.5964912,12.2959989 C18.5964912,8.47266713 15.6823676,5.42744921 12.1568627,5.42744921 C8.35685849,5.42744921 5.40350877,8.43117586 5.40350877,12.2959989 C5.40350877,15.8816403 8.39765389,18.8454717 12.1568627,18.8454717 Z M7.64912281,18.9469666 C5.43521721,17.5060883 4,15.039545 4,12.2959989 C4,7.64281744 7.581722,4 12.1568627,4 C16.418278,4 20,7.64281744 20,12.2959989 C20,15.0735051 18.5290322,17.5671084 16.3508772,19 L16.3508772,17.2198663 C15.1061971,18.3085306 13.6559047,18.8486711 12,18.8402876 C10.4212763,18.8322949 8.97098389,18.2774695 7.64912281,17.1758113 L7.64912281,18.9469666 Z" id="Combined-Shape" fill-rule="nonzero"></path>
                    <path d="M12.2352941,22.375567 C17.8384388,22.375567 22.5714286,17.6836473 22.5714286,12.1291234 C22.5714286,6.17276292 17.901442,1.41617513 12.2352941,1.41617513 C6.16156122,1.41617513 1.42857143,6.10809482 1.42857143,12.1291234 C1.42857143,17.7461038 6.22679538,22.375567 12.2352941,22.375567 Z M7.71200514,22.9720754 C3.15230698,21.2437306 0,16.9829338 0,12.1291234 C0,5.32596289 5.372583,0 12.2352941,0 C18.627417,0 24,5.32596289 24,12.1291234 C24,17.0654855 20.7395548,21.388491 16.2766087,23.0580533 L16.4285714,21.4603134 C15.1081988,22.0726346 13.6320083,22.3747685 12,22.3667151 C10.5291444,22.3667151 9.05295389,22.0364439 7.57142857,21.3759017 L7.71200514,22.9720754 Z" id="Combined-Shape" fill-rule="nonzero"></path>
                    <path d="M12,26 C10.0971275,25.9957295 8.87428943,23.6223818 9.01029644,17.4883746 C9.06658282,14.9498213 10.6398795,14.6983069 12,14.697677 C13.3601205,14.6983069 14.9334172,14.9498213 14.9897036,17.4883746 C15.1257106,23.6223818 13.9028725,25.9957295 12,26 Z M11.9948518,13.5813975 C10.4912054,13.5813975 9.27225925,12.3319591 9.27225925,10.7906988 C9.27225925,9.24943839 10.4912054,8 11.9948518,8 C13.4984981,8 14.7174443,9.24943839 14.7174443,10.7906988 C14.7174443,12.3319591 13.4984981,13.5813975 11.9948518,13.5813975 Z" id="Combined-Shape"></path>
                </g>
            </g>
        </g>
    </g>
</svg>