<?xml version="1.0" encoding="UTF-8"?>
<svg width="42px" height="43px" viewBox="0 0 42 43" version="1.1" xmlns="http://www.w3.org/2000/svg" xmlns:xlink="http://www.w3.org/1999/xlink">
    <!-- Generator: Sketch 55 (78076) - https://sketchapp.com -->
    <title>Spotify</title>
    <desc>Created with Sketch.</desc>
    <g id="Symbols" stroke="none" stroke-width="1" fill="none" fill-rule="evenodd">
        <g id="Site-Elements/Footer" transform="translate(-1221.000000, -88.000000)">
            <g id="Spotify" transform="translate(1221.000000, 88.000000)">
                <path d="M0,21.1923613 C0,32.7912794 9.40221032,42.1927374 20.9998746,42.1927374 C32.5980404,42.1927374 42,32.7912794 42,21.1923613 C42,9.59469699 32.5980404,0.19273743 20.9998746,0.19273743 C9.40221032,0.19273743 0,9.59469699 0,21.1923613 Z" fill="#FFFFFF"></path>
                <path d="M30.8079627,30.5349182 C30.4312562,31.1831555 29.6270317,31.3861893 29.0115359,30.9911532 C24.0893213,27.8342795 17.8938139,27.1214286 10.5974725,28.8701985 C9.89437047,29.0393496 9.19352121,28.5770734 9.0333271,27.8395327 C8.87213177,27.1017294 9.31116377,26.3662899 10.0157676,26.1979268 C18.0004431,24.2826325 24.8494925,25.1068499 30.3744374,28.6495667 C30.9904338,29.04434 31.1844189,29.8887821 30.8079627,30.5349182" id="Path" fill="#002250"></path>
                <path d="M32.7630342,24.4130686 C32.2980029,25.1820985 31.3114687,25.4233432 30.5579413,24.9511143 C25.0325643,21.4893536 16.6065116,20.4863365 10.069311,22.5088876 C9.22174606,22.7699023 8.32630303,22.2829084 8.06874346,21.4202836 C7.81339365,20.5564075 8.29143796,19.6454837 9.13777526,19.3827173 C16.6055295,17.0728748 25.8892138,18.1915092 32.2356386,22.1667906 C32.9891661,22.6397703 33.2263468,23.6457905 32.7630342,24.4130686" id="Path" fill="#002250"></path>
                <path d="M33.1224506,18.9093932 C26.5565673,14.7776068 15.7262894,14.3977021 9.45836887,16.4134653 C8.45161955,16.7371834 7.38722356,16.1351091 7.08245021,15.0685922 C6.77743362,14.0013021 7.34490068,12.874217 8.35213647,12.5499835 C15.5475118,10.2357604 27.5083455,10.6826769 35.0671138,15.4371565 C35.9726774,16.0067559 36.269424,17.245699 35.7328477,18.2034508 C35.195785,19.1627489 34.0255819,19.4789926 33.1224506,18.9093932" id="Path" fill="#002250"></path>
            </g>
        </g>
    </g>
</svg>